Project 1: Data Wrangling, Exploration, Visualization
…
 After creating a variable that describes a clinics total number of transfers with at least one PGT embryo (cyclesatleastonePGT), clinics were grouped by location so that the average number of transfers with at least one PGT embryo could be summarized for each location. 

statecycPGTdata <- ivfincome %>% group_by(CurrentClinicName1) %>% 
    mutate(totaltransfers = sum(Donor_NumTrans1, Donor_NumTrans2, 
        Donor_NumTrans3, Donor_NumTrans4, ND_NumTrans1, ND_NumTrans2, 
        ND_NumTrans3, ND_NumTrans4, na.rm = T)) %>% mutate(cyclesatleastonePGT = (TransPGTAll/100) * 
    totaltransfers) %>% group_by(state) %>% mutate(statecycPGT = mean(cyclesatleastonePGT, 
    na.rm = T))

statecycPGTdata %>% group_by(state) %>% arrange(-statecycPGT) %>% 
    slice(1:3, 37:39)

## # A tibble: 135 x 144
## # Groups:   state [49]
##    OrderID CurrentClinicNa CurrentClinicNa CurrentClinicCi state
##      <dbl> <chr>            <chr>            <chr>            <chr>
##  1       1 ART FERTILITY P <NA>             BIRMINGHAM       ALAB
##  2       2 UNIVERSITY OF A REPRODUCTIVE EN BIRMINGHAM       ALAB
##  3       3 ALABAMA FERTILI <NA>             HOMEWOOD         ALAB
##  4       6 NEW DIRECTION F <NA>             GILBERT          ARIZ
##  5       7 ARIZONA REPRODU <NA>             PHOENIX          ARIZ
##  6       8 GONDRA CENTER F <NA>             PHOENIX          ARIZ
##  7      19 ARKANSAS FERTIL <NA>             LITTLE ROCK      ARKA
##  8      20 LIFESTART FERTI <NA>             AGOURA HILLS     CALI
##  9      21 ALTA BATES IN V <NA>             BERKELEY         CALI
## 10      22 CENTER FOR REPR (CRH&G)          BEVERLY HILLS    CALI
## #  with 125 more rows, and 139 more variables: MedicalDirector <chr>,
## #   ND_NumIntentRet1 <chr>, ND_NumIntentRet2 <chr>, ND_NumIntentRet3 <chr>,
## #   ND_NumIntentRet4 <chr>, ND_IntentRetLB1 <chr>, ND_IntentRetLB2 <chr>,
## #   ND_IntentRetLB3 <chr>, ND_IntentRetLB4 <chr>, ND_IntentRetSingleLB1 <chr>,
## #   ND_IntentRetSingleLB2 <chr>, ND_IntentRetSingleLB3 <chr>,
## #   ND_IntentRetSingleLB4 <chr>, ND_NumRetrieve1 <chr>, ND_NumRetrieve2 <chr>,
## #   ND_NumRetrieve3 <chr>, ND_NumRetrieve4 <chr>, ND_RetrieveLB1 <chr>,
## #   ND_RetrieveLB2 <chr>, ND_RetrieveLB3 <chr>, ND_RetrieveLB4 <chr>,
## #   ND_RetrieveSingleLB1 <chr>, ND_RetrieveSingleLB2 <chr>,
…
If applicable, at least 1 of these should group by two categorical variables

ivfincome %>% group_by(state, SARTmember) %>% summarise(countsclinicSARTmember = n())  #number of clinics that are and aren't SART members by state

## # A tibble: 75 x 3
## # Groups:   state [49]
##    state       SARTmember countsclinicSARTmember
##    <chr>       <chr>                       <int>
##  1 ALABAMA     No                              1
##  2 ALABAMA     Yes                             4
##  3 ARIZONA     No                              3
##  4 ARIZONA     Yes                            10
##  5 ARKANSAS    Yes                             1
##  6 CALIFORNIA  No                             18
##  7 CALIFORNIA  Yes                            54
##  8 COLORADO    No                              3
##  9 COLORADO    Yes                             5
## 10 CONNECTICUT Yes                             6
## #  with 65 more rows
…
## # A tibble: 1 x 1
##   meantotalcycles
##             <dbl>
## 1            526.

Tidying: Reshaping

Used pivot_wider to tidy summary data (counts of clinics in each state, categorized by below/above US median income)

ivfincome %>% mutate(aboveUSmedian = ifelse(medianincome > 65712, 
    "Above Median U.S. Income", "Below Median U.S. Income")) %>% 
    group_by(state, aboveUSmedian) %>% summarise(countaboveUSmedian = n()) %>% 
    pivot_wider(names_from = "aboveUSmedian", values_from = "countaboveUSmedian")

## # A tibble: 49 x 3
## # Groups:   state [49]
##    state                `Below Median U.S. Income` `Above Median U.S. Income`
##    <chr>                                     <int>                      <int>
##  1 ALABAMA                                       5                         NA
##  2 ARIZONA                                      13                         NA
##  3 ARKANSAS                                      1                         NA
##  4 CALIFORNIA                                   NA                         72
##  5 COLORADO                                     NA                          8
##  6 CONNECTICUT                                  NA                          6
##  7 DELAWARE                                     NA                          2
##  8 DISTRICT OF COLUMBIA                         NA                          2
##  9 FLORIDA                                      27                         NA
## 10 GEORGIA                                       8                         NA
## #  with 39 more rows
…
